<?xml version="1.0" encoding="UTF-8" standalone="no"?>
<!-- Created with Inkscape (http://www.inkscape.org/) -->

<svg
   width="16.000002"
   height="16"
   viewBox="0 0 4.2333341 4.2333336"
   version="1.1"
   id="svg1550"
   inkscape:version="1.1.2 (0a00cf5339, 2022-02-04)"
   sodipodi:docname="de.zwarf.picplanner-symbolic.svg"
   xmlns:inkscape="http://www.inkscape.org/namespaces/inkscape"
   xmlns:sodipodi="http://sodipodi.sourceforge.net/DTD/sodipodi-0.dtd"
   xmlns="http://www.w3.org/2000/svg"
   xmlns:svg="http://www.w3.org/2000/svg">
  <sodipodi:namedview
     id="namedview1552"
     pagecolor="#ffffff"
     bordercolor="#666666"
     borderopacity="1.0"
     inkscape:pageshadow="2"
     inkscape:pageopacity="0.0"
     inkscape:pagecheckerboard="true"
     inkscape:document-units="mm"
     showgrid="false"
     fit-margin-top="0"
     fit-margin-left="0"
     fit-margin-right="0"
     fit-margin-bottom="0"
     units="px"
     inkscape:zoom="28.501585"
     inkscape:cx="4.7014929"
     inkscape:cy="9.6485862"
     inkscape:window-width="1920"
     inkscape:window-height="1011"
     inkscape:window-x="0"
     inkscape:window-y="32"
     inkscape:window-maximized="1"
     inkscape:current-layer="layer1" />
  <defs
     id="defs1547">
    <inkscape:path-effect
       effect="powerclip"
       id="path-effect8470"
       is_visible="true"
       lpeversion="1"
       inverse="true"
       flatten="false"
       hide_clip="false"
       message="Füllregel Gerade-Ungerade im &lt;b&gt;Füllung und Kontur&lt;/b&gt;-Dialog verwenden, wenn das Anwenden des Ausschnitts mit nachfolgendem Umwandeln in Pfade kein Ergebnis bringt" />
    <inkscape:path-effect
       effect="powerclip"
       id="path-effect5390"
       is_visible="true"
       lpeversion="1"
       inverse="true"
       flatten="false"
       hide_clip="false"
       message="Füllregel Gerade-Ungerade im &lt;b&gt;Füllung und Kontur&lt;/b&gt;-Dialog verwenden, wenn das Anwenden des Ausschnitts mit nachfolgendem Umwandeln in Pfade kein Ergebnis bringt" />
    <clipPath
       clipPathUnits="userSpaceOnUse"
       id="clipPath5386">
      <rect
         style="display:block;fill:#000000;fill-opacity:1;stroke:none;stroke-width:10.3717;stroke-linecap:square;stroke-linejoin:bevel;stroke-miterlimit:4;stroke-dasharray:none"
         id="rect5388"
         width="56.18721"
         height="23.567078"
         x="98.312065"
         y="283.68027" />
    </clipPath>
    <clipPath
       clipPathUnits="userSpaceOnUse"
       id="clipPath8466">
      <path
         id="path8468"
         style="display:none;fill:#0000ff;fill-opacity:1;fill-rule:evenodd;stroke-width:0.15361;stroke-linecap:round;stroke-linejoin:round"
         d="m 91.301664,199.07152 -0.383967,0.38396 h -0.558334 v 0.55834 l -0.433531,0.43354 0.433531,0.43354 v 0.52011 h 0.520116 l 0.422185,0.42219 0.422185,-0.42219 h 0.581028 v -0.58104 l 0.372622,-0.37261 -0.372622,-0.37263 v -0.61925 h -0.619244 z" />
      <path
         id="lpe_path-effect8470"
         style="fill:#0000ff;fill-opacity:1;fill-rule:evenodd;stroke-width:0.15361;stroke-linecap:round;stroke-linejoin:round"
         class="powerclip"
         d="m 84.591366,193.65062 h 13.439583 v 14.2194 H 84.591366 Z m 6.710298,5.4209 -0.383967,0.38396 h -0.558334 v 0.55834 l -0.433531,0.43354 0.433531,0.43354 v 0.52011 h 0.520116 l 0.422185,0.42219 0.422185,-0.42219 h 0.581028 v -0.58104 l 0.372622,-0.37261 -0.372622,-0.37263 v -0.61925 h -0.619244 z" />
    </clipPath>
  </defs>
  <g
     inkscape:label="Ebene 1"
     inkscape:groupmode="layer"
     id="layer1"
     transform="translate(-89.158243,-198.62939)">
    <g
       id="g8464"
       clip-path="url(#clipPath8466)"
       inkscape:path-effect="#path-effect8470">
      <circle
         style="fill:#000000;fill-opacity:1;stroke:none;stroke-width:1.06047;stroke-linecap:square;stroke-linejoin:bevel;stroke-miterlimit:4;stroke-dasharray:none"
         id="circle7921"
         clip-path="none"
         r="1.7197917"
         cy="200.37041"
         cx="91.311157"
         d="m 93.030949,200.37041 a 1.7197917,1.7197917 0 0 1 -1.719792,1.71979 1.7197917,1.7197917 0 0 1 -1.719791,-1.71979 1.7197917,1.7197917 0 0 1 1.719791,-1.71979 1.7197917,1.7197917 0 0 1 1.719792,1.71979 z" />
      <path
         sodipodi:type="star"
         style="fill:#000000;fill-opacity:1;stroke:none;stroke-width:2;stroke-linecap:square;stroke-linejoin:bevel;stroke-miterlimit:4;stroke-dasharray:none"
         id="path7918"
         inkscape:flatsided="false"
         sodipodi:sides="3"
         sodipodi:cx="1.957345"
         sodipodi:cy="10.39025"
         sodipodi:r1="5.3125906"
         sodipodi:r2="2.6562953"
         sodipodi:arg1="1.5707963"
         sodipodi:arg2="2.6179939"
         inkscape:rounded="0"
         inkscape:randomized="0"
         transform="matrix(0.28296325,0,0,0.17250436,90.756255,200.16121)"
         inkscape:transform-center-y="0.22911292"
         d="m 1.9573452,15.702841 -2.30041943,-3.984443 -2.30041927,-3.984443 4.6008386,-1e-7 4.6008383,-10e-8 -2.3004192,3.9844432 z" />
    </g>
  </g>
</svg>
