<?xml version="1.0" encoding="UTF-8"?>
<svg width="48px" height="48px" viewBox="0 0 48 48" version="1.1" xmlns="http://www.w3.org/2000/svg" xmlns:xlink="http://www.w3.org/1999/xlink">
    <title>Artboard</title>
    <defs>
        <filter x="-46.2%" y="-50.0%" width="192.4%" height="200.0%" filterUnits="objectBoundingBox" id="filter-1">
            <feOffset dx="0" dy="0" in="SourceAlpha" result="shadowOffsetOuter1"></feOffset>
            <feGaussianBlur stdDeviation="5" in="shadowOffsetOuter1" result="shadowBlurOuter1"></feGaussianBlur>
            <feColorMatrix values="0 0 0 0 0.211764706   0 0 0 0 0.537254902   0 0 0 0 0.901960784  0 0 0 0.578999126 0" type="matrix" in="shadowBlurOuter1" result="shadowMatrixOuter1"></feColorMatrix>
            <feMerge>
                <feMergeNode in="shadowMatrixOuter1"></feMergeNode>
                <feMergeNode in="SourceGraphic"></feMergeNode>
            </feMerge>
        </filter>
        <filter x="-50.8%" y="-51.4%" width="174.3%" height="186.0%" filterUnits="objectBoundingBox" id="filter-2">
            <feOffset dx="0" dy="0" in="SourceAlpha" result="shadowOffsetOuter1"></feOffset>
            <feGaussianBlur stdDeviation="1.5" in="shadowOffsetOuter1" result="shadowBlurOuter1"></feGaussianBlur>
            <feColorMatrix values="0 0 0 0 0.600361066   0 0 0 0 0.233479421   0 0 0 0 1  0 0 0 1 0" type="matrix" in="shadowBlurOuter1" result="shadowMatrixOuter1"></feColorMatrix>
            <feMerge>
                <feMergeNode in="shadowMatrixOuter1"></feMergeNode>
                <feMergeNode in="SourceGraphic"></feMergeNode>
            </feMerge>
        </filter>
        <path d="M27.8961955,0.406733601 C29.2322093,0.583601001 29.5641116,0.600158711 29.1956213,0.601248737 L28.7440042,0.601627302 C26.3616809,0.612841237 17.3648274,0.881484494 12.399803,6.48475368 C11.8303535,7.12740489 11.4319918,7.82465227 11.1470194,8.52916004 C11.6889444,9.43035095 12,10.4853044 12,11.6129087 C12,14.9266172 9.3137085,17.6129087 6,17.6129087 C2.6862915,17.6129087 0,14.9266172 0,11.6129087 C0,9.7047135 0.89077936,8.00457094 2.2791907,6.90562843 L1.99191284,7.15891398 C8.6200769,1.24871054 17.2548378,-1.00201625 27.8961955,0.406733601 Z" id="path-3"></path>
        <filter x="-32.4%" y="-54.0%" width="158.9%" height="207.9%" filterUnits="objectBoundingBox" id="filter-4">
            <feMorphology radius="1" operator="dilate" in="SourceAlpha" result="shadowSpreadOuter1"></feMorphology>
            <feOffset dx="0" dy="0" in="shadowSpreadOuter1" result="shadowOffsetOuter1"></feOffset>
            <feGaussianBlur stdDeviation="2.5" in="shadowOffsetOuter1" result="shadowBlurOuter1"></feGaussianBlur>
            <feComposite in="shadowBlurOuter1" in2="SourceAlpha" operator="out" result="shadowBlurOuter1"></feComposite>
            <feColorMatrix values="0 0 0 0 1   0 0 0 0 0.916520979   0 0 0 0 0  0 0 0 1 0" type="matrix" in="shadowBlurOuter1"></feColorMatrix>
        </filter>
        <path d="M27,21 C30.3137085,21 33,23.6862915 33,27 C33,29.153572 31.8653985,31.0421437 30.1613475,32.1005631 L30.2479248,32.0410309 C24.2142054,36.1678541 15.8766668,37.5268907 5.23530908,36.1181409 C3.96002316,35.9493129 3.5996405,35.9265522 3.89000445,35.9238838 L4.38750036,35.9232472 C6.76982367,35.9120332 15.7666772,35.64339 20.7317016,30.0401208 C20.9874776,29.7514652 21.2089613,29.4572513 21.4013377,29.1607164 C21.141997,28.4905626 21,27.7618639 21,27 C21,23.6862915 23.6862915,21 27,21 Z" id="path-5"></path>
        <filter x="-26.6%" y="-60.7%" width="159.2%" height="221.4%" filterUnits="objectBoundingBox" id="filter-6">
            <feMorphology radius="1" operator="dilate" in="SourceAlpha" result="shadowSpreadOuter1"></feMorphology>
            <feOffset dx="0" dy="0" in="shadowSpreadOuter1" result="shadowOffsetOuter1"></feOffset>
            <feGaussianBlur stdDeviation="2.5" in="shadowOffsetOuter1" result="shadowBlurOuter1"></feGaussianBlur>
            <feComposite in="shadowBlurOuter1" in2="SourceAlpha" operator="out" result="shadowBlurOuter1"></feComposite>
            <feColorMatrix values="0 0 0 0 1   0 0 0 0 0.916520979   0 0 0 0 0  0 0 0 1 0" type="matrix" in="shadowBlurOuter1"></feColorMatrix>
        </filter>
        <radialGradient cx="50%" cy="28.9877429%" fx="50%" fy="28.9877429%" r="71.0122571%" id="radialGradient-7">
            <stop stop-color="#F9F06B" offset="0%"></stop>
            <stop stop-color="#F5C211" offset="100%"></stop>
        </radialGradient>
        <path d="M1.75735931,10.2426407 L1.75735931,10.2426407 L1.75735931,10.2426407 C2.90217822,7.53005624 2.90217822,4.46994376 1.75735931,1.75735931 L1.75735931,1.75735931 L1.75735931,1.75735931 C4.46994376,2.90217822 7.53005624,2.90217822 10.2426407,1.75735931 L10.2426407,1.75735931 L10.2426407,1.75735931 C9.09782178,4.46994376 9.09782178,7.53005624 10.2426407,10.2426407 L10.2426407,10.2426407 L10.2426407,10.2426407 C7.53005624,9.09782178 4.46994376,9.09782178 1.75735931,10.2426407 Z" id="path-8"></path>
        <filter x="-186.3%" y="-186.3%" width="472.6%" height="472.6%" filterUnits="objectBoundingBox" id="filter-9">
            <feMorphology radius="0.5" operator="dilate" in="SourceAlpha" result="shadowSpreadOuter1"></feMorphology>
            <feOffset dx="0" dy="0" in="shadowSpreadOuter1" result="shadowOffsetOuter1"></feOffset>
            <feGaussianBlur stdDeviation="5" in="shadowOffsetOuter1" result="shadowBlurOuter1"></feGaussianBlur>
            <feComposite in="shadowBlurOuter1" in2="SourceAlpha" operator="out" result="shadowBlurOuter1"></feComposite>
            <feColorMatrix values="0 0 0 0 0.647058824   0 0 0 0 0.42745098   0 0 0 0 0.88627451  0 0 0 0.5 0" type="matrix" in="shadowBlurOuter1"></feColorMatrix>
        </filter>
        <radialGradient cx="50%" cy="28.9877429%" fx="50%" fy="28.9877429%" r="156.994548%" id="radialGradient-10">
            <stop stop-color="#F9BB6B" offset="0%"></stop>
            <stop stop-color="#DA8E08" offset="100%"></stop>
        </radialGradient>
        <circle id="path-11" cx="33" cy="37" r="3"></circle>
        <filter x="-258.3%" y="-258.3%" width="616.7%" height="616.7%" filterUnits="objectBoundingBox" id="filter-12">
            <feMorphology radius="0.5" operator="dilate" in="SourceAlpha" result="shadowSpreadOuter1"></feMorphology>
            <feOffset dx="0" dy="0" in="shadowSpreadOuter1" result="shadowOffsetOuter1"></feOffset>
            <feGaussianBlur stdDeviation="5" in="shadowOffsetOuter1" result="shadowBlurOuter1"></feGaussianBlur>
            <feComposite in="shadowBlurOuter1" in2="SourceAlpha" operator="out" result="shadowBlurOuter1"></feComposite>
            <feColorMatrix values="0 0 0 0 0.647058824   0 0 0 0 0.42745098   0 0 0 0 0.88627451  0 0 0 0.5 0" type="matrix" in="shadowBlurOuter1"></feColorMatrix>
        </filter>
    </defs>
    <g id="Artboard" stroke="none" stroke-width="1" fill="none" fill-rule="evenodd">
        <g id="Group-2" filter="url(#filter-1)" transform="translate(3.000000, 3.000000)" fill="#000000">
            <g id="Group" transform="translate(9.000000, 3.387091)">
                <circle id="Oval" cx="6" cy="11.6129087" r="6"></circle>
                <path d="M1.99191284,7.15891398 C8.6200769,1.24871054 17.2548378,-1.00201625 27.8961955,0.406733601 C33.9689856,1.21067633 19.2956702,-1.29756463 12.399803,6.48475368 C9.74731042,9.47821937 10.8068943,13.6562532 9.74731042,14.2349095 C3.54084679,17.6243618 3.0002577,13.0986051 1.99191284,7.15891398 Z" id="Path"></path>
            </g>
            <circle id="Oval" transform="translate(30.000000, 12.000000) rotate(63.000000) translate(-30.000000, -12.000000) " cx="30" cy="12" r="3"></circle>
            <path d="M27.4237861,16.6572711 C30.6951269,10.7776973 35.4052134,8.39033977 41.5540456,9.49519859 C45.0630496,10.1257173 36.5844554,8.15854615 32.5998576,14.2620875 C31.0671837,16.6098123 32.8099486,19.2361364 32.1976956,19.6899668 C30.554254,20.908162 30.4032406,20.2206141 29.8477795,20.0415098 C29.1911386,19.8297807 28.2725766,18.6724118 27.4237861,16.6572711 Z" id="Path" transform="translate(34.904870, 14.814939) rotate(63.000000) translate(-34.904870, -14.814939) "></path>
            <circle id="Oval" transform="translate(14.351236, 27.735788) rotate(-102.000000) translate(-14.351236, -27.735788) " cx="14.3512357" cy="27.7357878" r="3"></circle>
            <path d="M2.89835162,25.3666132 C6.1030646,19.6049397 10.7798372,17.2765323 16.9286694,18.3813911 C20.4376734,19.0119099 11.9590792,17.0447387 7.97448144,23.14828 C6.44180747,25.4960048 8.1845724,28.1223289 7.57231936,28.5761593 C5.92887782,29.7943545 5.77786438,29.1068067 5.22240333,28.9277023 C4.56576239,28.7159732 3.88083327,27.9006563 2.89835162,25.3666132 Z" id="Path" transform="translate(10.329464, 23.698881) rotate(-102.000000) translate(-10.329464, -23.698881) "></path>
            <circle id="Oval-Copy" cx="27" cy="27" r="6"></circle>
            <path d="M4.84031737,26.6094536 C10.8740368,22.4826304 19.2115754,21.1235937 29.8529331,22.5323436 C35.9257232,23.3362863 21.2524078,20.8280453 14.3565406,28.6103637 C11.704048,31.6038293 12.7395237,35.1950527 11.6799398,35.773709 C5.47347621,39.1631614 1.90130773,32.0718141 4.84031737,26.6094536 Z" id="Path" transform="translate(17.544121, 29.325242) scale(-1, -1) translate(-17.544121, -29.325242) "></path>
            <path d="M1.75735931,10.2426407 L1.75735931,10.2426407 L1.75735931,10.2426407 C2.90217822,7.53005624 2.90217822,4.46994376 1.75735931,1.75735931 L1.75735931,1.75735931 L1.75735931,1.75735931 C4.46994376,2.90217822 7.53005624,2.90217822 10.2426407,1.75735931 L10.2426407,1.75735931 L10.2426407,1.75735931 C9.09782178,4.46994376 9.09782178,7.53005624 10.2426407,10.2426407 L10.2426407,10.2426407 L10.2426407,10.2426407 C7.53005624,9.09782178 4.46994376,9.09782178 1.75735931,10.2426407 Z" id="Star-Copy" transform="translate(6.000000, 6.000000) rotate(-45.000000) translate(-6.000000, -6.000000) "></path>
            <circle id="Oval-Copy" cx="33" cy="37" r="3"></circle>
        </g>
        <g id="Group-2" filter="url(#filter-2)" transform="translate(3.000000, 3.000000)">
            <g id="Combined-Shape" transform="translate(9.000000, 3.387091)">
                <use fill="black" fill-opacity="1" filter="url(#filter-4)" xlink:href="#path-3"></use>
                <use stroke-opacity="0.7" stroke="#7239B3" stroke-width="1" fill="#A56DE2" fill-rule="evenodd" xlink:href="#path-3"></use>
            </g>
            <path d="M29.8669989,8.98564604 C36.5908952,9.23116141 40.8563808,12.3440416 42.6634558,18.3242866 C43.694714,21.7370816 41.5982751,13.2895218 34.3510104,12.510169 C33.8372741,12.4549231 33.3656103,12.5030907 32.933689,12.6163072 C32.7546398,13.474842 32.2024195,14.24479 31.3619715,14.6730196 C29.8857036,15.4252157 28.0791765,14.8382394 27.3269804,13.3619715 C26.5747843,11.8857036 27.1617606,10.0791765 28.6380285,9.32698043 C29.0283939,9.12807931 29.4418516,9.02281547 29.8528017,9.00287096 C29.8573223,8.99712067 29.8621559,8.99138529 29.8669989,8.98564604 Z" id="Combined-Shape" stroke-opacity="0.7" stroke="#A10705" fill="#C6262E"></path>
            <path d="M3.8793405,18.1653508 L3.9266466,18.3538602 C4.39637006,20.1722503 5.88142405,24.4160664 10.2805239,26.1168781 C10.762005,26.3030317 11.2296386,26.3786139 11.6757673,26.3811792 C12.0711493,25.599088 12.8042103,24.9975965 13.7275007,24.801345 C15.3481487,24.4568657 16.9411992,25.4914048 17.2856785,27.1120528 C17.6301579,28.7327008 16.5956188,30.3257513 14.9749708,30.6702306 C14.4724976,30.7770346 13.9726772,30.7512768 13.5118995,30.6165888 L13.5057678,30.6208649 C7.2037034,28.6841018 3.95382164,24.5936311 3.75612255,18.3494525 C3.7428493,17.9302271 3.72890392,17.6807696 3.72569865,17.5712171 L3.72515561,17.5220353 C3.72763124,17.4343794 3.76344467,17.6895906 3.8793405,18.1653508 Z" id="Combined-Shape" stroke-opacity="0.7" stroke="#A10705" fill="#C6262E"></path>
            <g id="Combined-Shape">
                <use fill="black" fill-opacity="1" filter="url(#filter-6)" xlink:href="#path-5"></use>
                <use stroke-opacity="0.7" stroke="#7239B3" stroke-width="1" fill="#A56DE2" fill-rule="evenodd" xlink:href="#path-5"></use>
            </g>
            <g id="Star-Copy" transform="translate(6.000000, 6.000000) rotate(-45.000000) translate(-6.000000, -6.000000) ">
                <use fill="black" fill-opacity="1" filter="url(#filter-9)" xlink:href="#path-8"></use>
                <use stroke-opacity="0.6" stroke="#F9C440" stroke-width="1" fill="url(#radialGradient-7)" fill-rule="evenodd" xlink:href="#path-8"></use>
            </g>
            <path d="M23,19 L23,19 L23,19 C23.2698364,18.3606377 23.2698364,17.6393623 23,17 L23,17 L23,17 C23.6393623,17.2698364 24.3606377,17.2698364 25,17 L25,17 L25,17 C24.7301636,17.6393623 24.7301636,18.3606377 25,19 L25,19 L25,19 C24.3606377,18.7301636 23.6393623,18.7301636 23,19 Z" id="Star-Copy" stroke-opacity="0.6" stroke="#FFE7AB" fill="#FFFFFF" transform="translate(24.000000, 18.000000) rotate(-80.000000) translate(-24.000000, -18.000000) "></path>
            <path d="M20,28 L20,28 L20,28 C20.2698364,27.3606377 20.2698364,26.6393623 20,26 L20,26 L20,26 C20.6393623,26.2698364 21.3606377,26.2698364 22,26 L22,26 L22,26 C21.7301636,26.6393623 21.7301636,27.3606377 22,28 L22,28 L22,28 C21.3606377,27.7301636 20.6393623,27.7301636 20,28 Z" id="Star-Copy" stroke-opacity="0.6" stroke="#FFE7AB" fill="#FFFFFF" transform="translate(21.000000, 27.000000) rotate(-6.000000) translate(-21.000000, -27.000000) "></path>
            <path d="M3,34 L3,34 L3,34 C3.2698364,33.3606377 3.2698364,32.6393623 3,32 L3,32 L3,32 C3.63936229,32.2698364 4.36063771,32.2698364 5,32 L5,32 L5,32 C4.7301636,32.6393623 4.7301636,33.3606377 5,34 L5,34 L5,34 C4.36063771,33.7301636 3.63936229,33.7301636 3,34 Z" id="Star-Copy" stroke-opacity="0.6" stroke="#FFE7AB" fill="#FFFFFF" transform="translate(4.000000, 33.000000) rotate(-6.000000) translate(-4.000000, -33.000000) "></path>
            <path d="M18,42 L18,42 L18,42 C18.2698364,41.3606377 18.2698364,40.6393623 18,40 L18,40 L18,40 C18.6393623,40.2698364 19.3606377,40.2698364 20,40 L20,40 L20,40 C19.7301636,40.6393623 19.7301636,41.3606377 20,42 L20,42 L20,42 C19.3606377,41.7301636 18.6393623,41.7301636 18,42 Z" id="Star-Copy" stroke-opacity="0.6" stroke="#FFE7AB" fill="#FFFFFF" transform="translate(19.000000, 41.000000) rotate(-28.000000) translate(-19.000000, -41.000000) "></path>
            <path d="M34,19 L34,19 L34,19 C34.2698364,18.3606377 34.2698364,17.6393623 34,17 L34,17 L34,17 C34.6393623,17.2698364 35.3606377,17.2698364 36,17 L36,17 L36,17 C35.7301636,17.6393623 35.7301636,18.3606377 36,19 L36,19 L36,19 C35.3606377,18.7301636 34.6393623,18.7301636 34,19 Z" id="Star-Copy" stroke-opacity="0.6" stroke="#FFE7AB" fill="#FFFFFF" transform="translate(35.000000, 18.000000) rotate(-11.000000) translate(-35.000000, -18.000000) "></path>
            <path d="M7,18 L7,18 L7,18 C7.2698364,17.3606377 7.2698364,16.6393623 7,16 L7,16 L7,16 C7.63936229,16.2698364 8.36063771,16.2698364 9,16 L9,16 L9,16 C8.7301636,16.6393623 8.7301636,17.3606377 9,18 L9,18 L9,18 C8.36063771,17.7301636 7.63936229,17.7301636 7,18 Z" id="Star-Copy" stroke-opacity="0.6" stroke="#FFE7AB" fill="#FFFFFF" transform="translate(8.000000, 17.000000) rotate(-59.000000) translate(-8.000000, -17.000000) "></path>
            <path d="M27,7 L27,7 L27,7 C27.2698364,6.36063771 27.2698364,5.63936229 27,5 L27,5 L27,5 C27.6393623,5.2698364 28.3606377,5.2698364 29,5 L29,5 L29,5 C28.7301636,5.63936229 28.7301636,6.36063771 29,7 L29,7 L29,7 C28.3606377,6.7301636 27.6393623,6.7301636 27,7 Z" id="Star-Copy" stroke-opacity="0.6" stroke="#FFE7AB" fill="#FFFFFF" transform="translate(28.000000, 6.000000) rotate(-75.000000) translate(-28.000000, -6.000000) "></path>
            <g id="Oval-Copy">
                <use fill="black" fill-opacity="1" filter="url(#filter-12)" xlink:href="#path-11"></use>
                <use stroke-opacity="0.498115166" stroke="#F37329" stroke-width="1" fill="url(#radialGradient-10)" fill-rule="evenodd" xlink:href="#path-11"></use>
            </g>
        </g>
    </g>
</svg>